1 10 20
100 200 125
201 210 89
900 1000 174
8861 4162 262
4744 7544 262
7893 8868 252
8228 3733 262
1070 4281 238
6478 540 262
4239 7753 262
1390 729 182
7466 8805 252
9090 3584 262
6845 262 262
9787 4288 262
1401 3208 217
1461 7155 262
9220 5388 262
3921 2097 238
1647 4580 238
9159 7121 252
1611 652 182
8322 8821 234
1224 3861 238
1130 9835 262
3780 2784 238
4787 9188 262
2686 6035 238
613 2973 217
8928 7283 252
7618 1946 262
5933 5171 236
5212 1013 238
3751 3977 189
765 4218 238
6662 33 262
9994 4275 262
6525 4666 262
1551 7937 262
9432 6547 260
3092 7239 262
9208 8110 247
6311 4145 262
4033 2549 238
8353 6668 257
210 783 171
3370 4932 238
4036 1810 238
1017 8844 262
220 1550 182
9439 1460 262
4476 4210 215
8409 1312 262
1540 5942 238
468 7284 262
9449 5244 262
218 1174 182
5092 12 238
7558 170 262
4134 8768 262
1364 6173 262
8337 3536 262
3378 8216 262
8539 1739 262
9594 8880 260
9306 5846 262
4681 4131 215
576 2974 217
5947 4723 236
9351 6602 260
4014 8036 262
5354 2848 238
9027 9513 260
6265 1659 262
9917 7860 260
7471 8599 252
7626 4406 262
7020 3771 262
8992 5063 262
478 4080 238
2647 2751 173
1368 9436 262
1984 6610 262
9022 1106 262
3539 903 217
7410 9723 260
9156 3793 262
8695 5081 262
3829 9087 262
5380 9125 262
3640 8478 262
2019 915 182
9549 6748 260
2734 1715 209
8478 4956 262
269 8735 262
4759 3653 238
8139 3894 262
963 537 179
2473 729 209
1039 4152 238
6500 6542 200
9393 6453 260
7234 137 262
5636 540 238
9161 3815 262
933 658 179
6212 4002 262
3376 6167 238
197 2034 182
127 6408 262
7463 1048 262
325 1711 182
6861 2578 262
2113 910 182
9772 6586 260
7386 1113 262
7342 4814 262
5262 8693 262
9471 7562 260
6849 793 262
3129 7341 262
5504 5025 192
2581 5969 238
1032 9517 262
6587 9969 260
2460 2023 183
6850 4473 262
8735 7098 252
3153 4270 238
1634 1686 180
6102 5752 218
5817 4417 236
5536 7501 262
5070 2711 238
8637 7199 252
5915 8738 262
845 4138 238
2544 6531 262
9212 2365 262
2552 4309 238
557 8023 262
5297 5378 192
1548 2680 209
620 9199 262
4069 4517 215
2848 1810 209
1797 5834 238
5553 4765 210
5800 2922 238
2880 983 209
686 2348 183
4621 8253 262
5670 490 238
8605 6345 257
1101 4306 238
1497 9259 262
3460 1218 217
5030 9430 262
5606 7942 262
5409 9312 262
6439 1772 262
3597 7848 262
6569 5242 262
9735 1989 262
8850 9648 260
8774 1675 262
1525 6247 262
233 1631 182
8120 4041 262
4356 7899 262
1930 4836 238
465 1406 182
8459 3320 262
3969 8882 262
8029 5791 262
2915 6169 238
3286 3687 194
3148 2150 217
3868 2200 238
9295 4189 262
9789 2381 262
5835 7870 262
6876 7281 257
4053 5040 215
8945 897 262
4605 4981 210
8022 639 262
3122 3169 168
2512 3314 217
8526 934 262
820 8689 262
3642 3467 194
7637 4879 262
3555 8318 262
8495 423 262
3401 9395 262
1458 2180 180
160 2526 209
9798 3521 262
9143 9374 260
1882 9521 262
8697 7139 252
